{
  "code" : 0,
  "message" : null,
  "data" : {
    "totalCount" : 46,
    "totalPage" : 2,
    "currentPage" : 1,
    "result" : [ {
      "createTime" : "2019-03-15 17:35:56",
      "sentence" : "我是单车",
      "type" : "1",
      "author" : "left",
      "friend" : null,
      "chatId" : null,
      "sensitiveWords" : null,
      "telephones" : null,
      "nickName" : "单车",
      "nick" : "单车",
      "headimg" : "http://wx.qlogo.cn/mmhead/ver_1/oNmXPHX45cugjoTIqr7oBtP0NnyuKU9zFoZaiapFnElxGuVuyMqm4ZicVNzheHqiaeS7wibrdD2TzV25Znyos09thLLZtC5uGNpiczl6EGW5RtXE/0",
      "wxId" : "danche988",
      "channel" : null,
      "sentenceJson" : null
    }, {
      "createTime" : "2019-03-15 17:38:39",
      "sentence" : "　　Last night, I watched a movie, it is about two teenagers, they have cancer, but the boy is positive about life while the girl is negative about life. They meet each other, then the girl is affected by the boy, she starts to see the beautiful things in her life. I am so moved by the movie, though the ending of the movie is not so perfect, we see the change of the girl's life. The topic of the movie is to tell people to be positive about life, no matter what happens, even the bad fortune they get, they still need to smile every day. People need to find the beauty of life, so they won't life live without meaning.",
      "type" : "1",
      "author" : "left",
      "friend" : null,
      "chatId" : null,
      "sensitiveWords" : null,
      "telephones" : null,
      "nickName" : "单车",
      "nick" : "单车",
      "headimg" : "http://wx.qlogo.cn/mmhead/ver_1/oNmXPHX45cugjoTIqr7oBtP0NnyuKU9zFoZaiapFnElxGuVuyMqm4ZicVNzheHqiaeS7wibrdD2TzV25Znyos09thLLZtC5uGNpiczl6EGW5RtXE/0",
      "wxId" : "danche988",
      "channel" : null,
      "sentenceJson" : null
    }, {
      "createTime" : "2019-03-15 17:38:41",
      "sentence" : "{\"des\":\"Lastnight,Iwatchedamovi\",\"img_url\":\"https://hujing-public.oss-cn-beijing.aliyuncs.com/TopicFile/634c931/Company/%E6%96%B0%E9%97%BB%E6%9D%A1.jpeg\",\"sub_type\":5,\"title\":\"Lastnight,Iwatc\",\"redirect_url\":\"www.baid.com\"}",
      "type" : "49",
      "author" : "left",
      "friend" : null,
      "chatId" : null,
      "sensitiveWords" : null,
      "telephones" : null,
      "nickName" : "单车",
      "nick" : "单车",
      "headimg" : "http://wx.qlogo.cn/mmhead/ver_1/oNmXPHX45cugjoTIqr7oBtP0NnyuKU9zFoZaiapFnElxGuVuyMqm4ZicVNzheHqiaeS7wibrdD2TzV25Znyos09thLLZtC5uGNpiczl6EGW5RtXE/0",
      "wxId" : "danche988",
      "channel" : null,
      "sentenceJson" : null
    }, {
      "createTime" : "2019-03-15 17:55:45",
      "sentence" : "gjxjcj",
      "type" : "1",
      "author" : "right",
      "friend" : null,
      "chatId" : null,
      "sensitiveWords" : null,
      "telephones" : null,
      "nickName" : "七堇年華",
      "nick" : "七堇年華",
      "headimg" : "http://wx.qlogo.cn/mmhead/ver_1/C9eBJ2Ts9xpcPMUAWXz7lCziaTAmo3LrIS1V7qadyjwQLCQauG28ABUeAiaTGf2QJpPNXzeLQgDmMaMiaaZBnVdV9SfsU3BykteXcSmQXlwS4E/0",
      "wxId" : "hujingsdr2",
      "channel" : null,
      "sentenceJson" : null
    }, {
      "createTime" : "2019-03-15 19:25:13",
      "sentence" : "1112",
      "type" : "1",
      "author" : "left",
      "friend" : null,
      "chatId" : null,
      "sensitiveWords" : null,
      "telephones" : null,
      "nickName" : "单车",
      "nick" : "单车",
      "headimg" : "http://wx.qlogo.cn/mmhead/ver_1/oNmXPHX45cugjoTIqr7oBtP0NnyuKU9zFoZaiapFnElxGuVuyMqm4ZicVNzheHqiaeS7wibrdD2TzV25Znyos09thLLZtC5uGNpiczl6EGW5RtXE/0",
      "wxId" : "danche988",
      "channel" : null,
      "sentenceJson" : null
    }, {
      "createTime" : "2019-03-15 19:43:27",
      "sentence" : "婆我搜索我搜索就去听",
      "type" : "1",
      "author" : "right",
      "friend" : null,
      "chatId" : null,
      "sensitiveWords" : null,
      "telephones" : null,
      "nickName" : "七堇年華",
      "nick" : "七堇年華",
      "headimg" : "http://wx.qlogo.cn/mmhead/ver_1/C9eBJ2Ts9xpcPMUAWXz7lCziaTAmo3LrIS1V7qadyjwQLCQauG28ABUeAiaTGf2QJpPNXzeLQgDmMaMiaaZBnVdV9SfsU3BykteXcSmQXlwS4E/0",
      "wxId" : "hujingsdr2",
      "channel" : null,
      "sentenceJson" : null
    }, {
      "createTime" : "2019-03-15 19:55:37",
      "sentence" : "　　Last night, I watched a movie, it is about two teenagers, they have cancer, but the boy is positive about life while the girl is negative about life. They meet each other, then the girl is affected by the boy, she starts to see the beautiful things in her life. I am so moved by the movie, though the ending of the movie is not so perfect, we see the change of the girl's life. The topic of the movie is to tell people to be positive about life, no matter what happens, even the bad fortune they get, they still need to smile every day. People need to find the beauty of life, so they won't life live without meaning.",
      "type" : "1",
      "author" : "left",
      "friend" : null,
      "chatId" : null,
      "sensitiveWords" : null,
      "telephones" : null,
      "nickName" : "单车",
      "nick" : "单车",
      "headimg" : "http://wx.qlogo.cn/mmhead/ver_1/oNmXPHX45cugjoTIqr7oBtP0NnyuKU9zFoZaiapFnElxGuVuyMqm4ZicVNzheHqiaeS7wibrdD2TzV25Znyos09thLLZtC5uGNpiczl6EGW5RtXE/0",
      "wxId" : "danche988",
      "channel" : null,
      "sentenceJson" : null
    }, {
      "createTime" : "2019-03-15 19:55:38",
      "sentence" : "{\"des\":\"Lastnight,Iwatchedamovi\",\"img_url\":\"https://hujing-public.oss-cn-beijing.aliyuncs.com/TopicFile/634c931/Company/%E6%96%B0%E9%97%BB%E6%9D%A1.jpeg\",\"sub_type\":5,\"title\":\"Lastnight,Iwatc\",\"redirect_url\":\"www.baid.com\"}",
      "type" : "49",
      "author" : "left",
      "friend" : null,
      "chatId" : null,
      "sensitiveWords" : null,
      "telephones" : null,
      "nickName" : "单车",
      "nick" : "单车",
      "headimg" : "http://wx.qlogo.cn/mmhead/ver_1/oNmXPHX45cugjoTIqr7oBtP0NnyuKU9zFoZaiapFnElxGuVuyMqm4ZicVNzheHqiaeS7wibrdD2TzV25Znyos09thLLZtC5uGNpiczl6EGW5RtXE/0",
      "wxId" : "danche988",
      "channel" : null,
      "sentenceJson" : null
    }, {
      "createTime" : "2019-03-15 19:55:38",
      "sentence" : "Lastnight,Iwatchedamovie,itisabouttwoteenagers,theyhavecancer,buttheboyispositiveaboutlifewhilethegirlisnegativeaboutlife.Theymeeteachother,thenthegirlisaffectedbytheboy,shestartstoseethebeautifulthingsinherlife.Iamsomovedbythemovie,thoughtheendingofthemovieisnotsoperfect,weseethechangeofthegirl'slife.Thetopicofthemovieistotellpeopletobepositiveaboutlife,nomatterwhathappens,eventhebadfortunetheyget,theystillneedtosmileeveryday.Peopleneedtofindthebeautyoflife,sotheywon'tlifelivewithoutmeaning.",
      "type" : "1",
      "author" : "left",
      "friend" : null,
      "chatId" : null,
      "sensitiveWords" : null,
      "telephones" : null,
      "nickName" : "单车",
      "nick" : "单车",
      "headimg" : "http://wx.qlogo.cn/mmhead/ver_1/oNmXPHX45cugjoTIqr7oBtP0NnyuKU9zFoZaiapFnElxGuVuyMqm4ZicVNzheHqiaeS7wibrdD2TzV25Znyos09thLLZtC5uGNpiczl6EGW5RtXE/0",
      "wxId" : "danche988",
      "channel" : null,
      "sentenceJson" : null
    }, {
      "createTime" : "2019-03-15 19:55:40",
      "sentence" : "Lastnight,Iwatchedamovie,itisabouttwoteenagers,theyhavecancer,buttheboyispositiveaboutlifewhilethegirlisnegativeaboutlife.Theymeeteachother,thenthegirlisaffectedbytheboy,shestartstoseethebeautifulthingsinherlife.Iamsomovedbythemovie,thoughtheendingofthemovieisnotsoperfect,weseethechangeofthegirl'slife.Thetopicofthemovieistotellpeopletobepositiveaboutlife,nomatterwhathappens,eventhebadfortunetheyget,theystillneedtosmileeveryday.Peopleneedtofindthebeautyoflife,sotheywon'tlifelivewithoutmeaning.",
      "type" : "1",
      "author" : "left",
      "friend" : null,
      "chatId" : null,
      "sensitiveWords" : null,
      "telephones" : null,
      "nickName" : "单车",
      "nick" : "单车",
      "headimg" : "http://wx.qlogo.cn/mmhead/ver_1/oNmXPHX45cugjoTIqr7oBtP0NnyuKU9zFoZaiapFnElxGuVuyMqm4ZicVNzheHqiaeS7wibrdD2TzV25Znyos09thLLZtC5uGNpiczl6EGW5RtXE/0",
      "wxId" : "danche988",
      "channel" : null,
      "sentenceJson" : null
    }, {
      "createTime" : "2019-03-15 19:55:41",
      "sentence" : "http://login.aihujing.com:80/image/getImage?ossKey=wx_image/hujing0302/wxid_8o0wyr7y4q2s22_chat_image/th_756b55e1c197f3a0ba22c0fa9e2edfb9",
      "type" : "3",
      "author" : "left",
      "friend" : null,
      "chatId" : null,
      "sensitiveWords" : null,
      "telephones" : null,
      "nickName" : "单车",
      "nick" : "单车",
      "headimg" : "http://wx.qlogo.cn/mmhead/ver_1/oNmXPHX45cugjoTIqr7oBtP0NnyuKU9zFoZaiapFnElxGuVuyMqm4ZicVNzheHqiaeS7wibrdD2TzV25Znyos09thLLZtC5uGNpiczl6EGW5RtXE/0",
      "wxId" : "danche988",
      "channel" : null,
      "sentenceJson" : null
    }, {
      "createTime" : "2019-03-15 19:55:43",
      "sentence" : "{\"des\":\"\",\"sub_type\":6,\"title\":\"user导入.xlsx\"}",
      "type" : "49",
      "author" : "left",
      "friend" : null,
      "chatId" : null,
      "sensitiveWords" : null,
      "telephones" : null,
      "nickName" : "单车",
      "nick" : "单车",
      "headimg" : "http://wx.qlogo.cn/mmhead/ver_1/oNmXPHX45cugjoTIqr7oBtP0NnyuKU9zFoZaiapFnElxGuVuyMqm4ZicVNzheHqiaeS7wibrdD2TzV25Znyos09thLLZtC5uGNpiczl6EGW5RtXE/0",
      "wxId" : "danche988",
      "channel" : null,
      "sentenceJson" : null
    }, {
      "createTime" : "2019-03-15 19:55:44",
      "sentence" : "Lastnight,Iwatchedamovie,itisabouttwoteenagers,theyhavecancer,buttheboyispositiveaboutlifewhilethegirlisnegativeaboutlife.Theymeeteachother,thenthegirlisaffectedbytheboy,shestartstoseethebeautifulthingsinherlife.Iamsomovedbythemovie,thoughtheendingofthemovieisnotsoperfect,weseethechangeofthegirl'slife.Thetopicofthemovieistotellpeopletobepositiveaboutlife,nomatterwhathappens,eventhebadfortunetheyget,theystillneedtosmileeveryday.Peopleneedtofindthebeautyoflife,sotheywon'tlifelivewithoutmeaning.",
      "type" : "1",
      "author" : "left",
      "friend" : null,
      "chatId" : null,
      "sensitiveWords" : null,
      "telephones" : null,
      "nickName" : "单车",
      "nick" : "单车",
      "headimg" : "http://wx.qlogo.cn/mmhead/ver_1/oNmXPHX45cugjoTIqr7oBtP0NnyuKU9zFoZaiapFnElxGuVuyMqm4ZicVNzheHqiaeS7wibrdD2TzV25Znyos09thLLZtC5uGNpiczl6EGW5RtXE/0",
      "wxId" : "danche988",
      "channel" : null,
      "sentenceJson" : null
    }, {
      "createTime" : "2019-03-15 20:00:17",
      "sentence" : "　　Last night, I watched a movie, it is about two teenagers, they have cancer, but the boy is positive about life while the girl is negative about life. They meet each other, then the girl is affected by the boy, she starts to see the beautiful things in her life. I am so moved by the movie, though the ending of the movie is not so perfect, we see the change of the girl's life. The topic of the movie is to tell people to be positive about life, no matter what happens, even the bad fortune they get, they still need to smile every day. People need to find the beauty of life, so they won't life live without meaning.",
      "type" : "1",
      "author" : "left",
      "friend" : null,
      "chatId" : null,
      "sensitiveWords" : null,
      "telephones" : null,
      "nickName" : "单车",
      "nick" : "单车",
      "headimg" : "http://wx.qlogo.cn/mmhead/ver_1/oNmXPHX45cugjoTIqr7oBtP0NnyuKU9zFoZaiapFnElxGuVuyMqm4ZicVNzheHqiaeS7wibrdD2TzV25Znyos09thLLZtC5uGNpiczl6EGW5RtXE/0",
      "wxId" : "danche988",
      "channel" : null,
      "sentenceJson" : null
    }, {
      "createTime" : "2019-03-15 20:00:18",
      "sentence" : "{\"des\":\"Lastnight,Iwatchedamovi\",\"img_url\":\"https://hujing-public.oss-cn-beijing.aliyuncs.com/TopicFile/634c931/Company/%E6%96%B0%E9%97%BB%E6%9D%A1.jpeg\",\"sub_type\":5,\"title\":\"Lastnight,Iwatc\",\"redirect_url\":\"www.baid.com\"}",
      "type" : "49",
      "author" : "left",
      "friend" : null,
      "chatId" : null,
      "sensitiveWords" : null,
      "telephones" : null,
      "nickName" : "单车",
      "nick" : "单车",
      "headimg" : "http://wx.qlogo.cn/mmhead/ver_1/oNmXPHX45cugjoTIqr7oBtP0NnyuKU9zFoZaiapFnElxGuVuyMqm4ZicVNzheHqiaeS7wibrdD2TzV25Znyos09thLLZtC5uGNpiczl6EGW5RtXE/0",
      "wxId" : "danche988",
      "channel" : null,
      "sentenceJson" : null
    }, {
      "createTime" : "2019-03-15 20:00:19",
      "sentence" : "Lastnight,Iwatchedamovie,itisabouttwoteenagers,theyhavecancer,buttheboyispositiveaboutlifewhilethegirlisnegativeaboutlife.Theymeeteachother,thenthegirlisaffectedbytheboy,shestartstoseethebeautifulthingsinherlife.Iamsomovedbythemovie,thoughtheendingofthemovieisnotsoperfect,weseethechangeofthegirl'slife.Thetopicofthemovieistotellpeopletobepositiveaboutlife,nomatterwhathappens,eventhebadfortunetheyget,theystillneedtosmileeveryday.Peopleneedtofindthebeautyoflife,sotheywon'tlifelivewithoutmeaning.",
      "type" : "1",
      "author" : "left",
      "friend" : null,
      "chatId" : null,
      "sensitiveWords" : null,
      "telephones" : null,
      "nickName" : "单车",
      "nick" : "单车",
      "headimg" : "http://wx.qlogo.cn/mmhead/ver_1/oNmXPHX45cugjoTIqr7oBtP0NnyuKU9zFoZaiapFnElxGuVuyMqm4ZicVNzheHqiaeS7wibrdD2TzV25Znyos09thLLZtC5uGNpiczl6EGW5RtXE/0",
      "wxId" : "danche988",
      "channel" : null,
      "sentenceJson" : null
    }, {
      "createTime" : "2019-03-15 20:00:20",
      "sentence" : "Lastnight,Iwatchedamovie,itisabouttwoteenagers,theyhavecancer,buttheboyispositiveaboutlifewhilethegirlisnegativeaboutlife.Theymeeteachother,thenthegirlisaffectedbytheboy,shestartstoseethebeautifulthingsinherlife.Iamsomovedbythemovie,thoughtheendingofthemovieisnotsoperfect,weseethechangeofthegirl'slife.Thetopicofthemovieistotellpeopletobepositiveaboutlife,nomatterwhathappens,eventhebadfortunetheyget,theystillneedtosmileeveryday.Peopleneedtofindthebeautyoflife,sotheywon'tlifelivewithoutmeaning.",
      "type" : "1",
      "author" : "left",
      "friend" : null,
      "chatId" : null,
      "sensitiveWords" : null,
      "telephones" : null,
      "nickName" : "单车",
      "nick" : "单车",
      "headimg" : "http://wx.qlogo.cn/mmhead/ver_1/oNmXPHX45cugjoTIqr7oBtP0NnyuKU9zFoZaiapFnElxGuVuyMqm4ZicVNzheHqiaeS7wibrdD2TzV25Znyos09thLLZtC5uGNpiczl6EGW5RtXE/0",
      "wxId" : "danche988",
      "channel" : null,
      "sentenceJson" : null
    }, {
      "createTime" : "2019-03-15 20:00:21",
      "sentence" : "http://login.aihujing.com:80/image/getImage?ossKey=wx_image/hujing0302/wxid_8o0wyr7y4q2s22_chat_image/th_f2cde8d926edca0467844101fa5fb29d",
      "type" : "3",
      "author" : "left",
      "friend" : null,
      "chatId" : null,
      "sensitiveWords" : null,
      "telephones" : null,
      "nickName" : "单车",
      "nick" : "单车",
      "headimg" : "http://wx.qlogo.cn/mmhead/ver_1/oNmXPHX45cugjoTIqr7oBtP0NnyuKU9zFoZaiapFnElxGuVuyMqm4ZicVNzheHqiaeS7wibrdD2TzV25Znyos09thLLZtC5uGNpiczl6EGW5RtXE/0",
      "wxId" : "danche988",
      "channel" : null,
      "sentenceJson" : null
    }, {
      "createTime" : "2019-03-15 20:00:22",
      "sentence" : "{\"des\":\"\",\"sub_type\":6,\"title\":\"user导入.xlsx\"}",
      "type" : "49",
      "author" : "left",
      "friend" : null,
      "chatId" : null,
      "sensitiveWords" : null,
      "telephones" : null,
      "nickName" : "单车",
      "nick" : "单车",
      "headimg" : "http://wx.qlogo.cn/mmhead/ver_1/oNmXPHX45cugjoTIqr7oBtP0NnyuKU9zFoZaiapFnElxGuVuyMqm4ZicVNzheHqiaeS7wibrdD2TzV25Znyos09thLLZtC5uGNpiczl6EGW5RtXE/0",
      "wxId" : "danche988",
      "channel" : null,
      "sentenceJson" : null
    }, {
      "createTime" : "2019-03-15 20:00:23",
      "sentence" : "Lastnight,Iwatchedamovie,itisabouttwoteenagers,theyhavecancer,buttheboyispositiveaboutlifewhilethegirlisnegativeaboutlife.Theymeeteachother,thenthegirlisaffectedbytheboy,shestartstoseethebeautifulthingsinherlife.Iamsomovedbythemovie,thoughtheendingofthemovieisnotsoperfect,weseethechangeofthegirl'slife.Thetopicofthemovieistotellpeopletobepositiveaboutlife,nomatterwhathappens,eventhebadfortunetheyget,theystillneedtosmileeveryday.Peopleneedtofindthebeautyoflife,sotheywon'tlifelivewithoutmeaning.",
      "type" : "1",
      "author" : "left",
      "friend" : null,
      "chatId" : null,
      "sensitiveWords" : null,
      "telephones" : null,
      "nickName" : "单车",
      "nick" : "单车",
      "headimg" : "http://wx.qlogo.cn/mmhead/ver_1/oNmXPHX45cugjoTIqr7oBtP0NnyuKU9zFoZaiapFnElxGuVuyMqm4ZicVNzheHqiaeS7wibrdD2TzV25Znyos09thLLZtC5uGNpiczl6EGW5RtXE/0",
      "wxId" : "danche988",
      "channel" : null,
      "sentenceJson" : null
    }, {
      "createTime" : "2019-03-15 20:01:16",
      "sentence" : "Lastnight,Iwatchedamovie,itisabouttwoteenagers,theyhavecancer,buttheboyispositiveaboutlifewhilethegirlisnegativeaboutlife.Theymeeteachother,thenthegirlisaffectedbytheboy,shestartstoseethebeautifulthingsinherlife.Iamsomovedbythemovie,thoughtheendingofthemovieisnotsoperfect,weseethechangeofthegirl'slife.Thetopicofthemovieistotellpeopletobepositiveaboutlife,nomatterwhathappens,eventhebadfortunetheyget,theystillneedtosmileeveryday.Peopleneedtofindthebeautyoflife,sotheywon'tlifelivewithoutmeaning.",
      "type" : "1",
      "author" : "left",
      "friend" : null,
      "chatId" : null,
      "sensitiveWords" : null,
      "telephones" : null,
      "nickName" : "单车",
      "nick" : "单车",
      "headimg" : "http://wx.qlogo.cn/mmhead/ver_1/oNmXPHX45cugjoTIqr7oBtP0NnyuKU9zFoZaiapFnElxGuVuyMqm4ZicVNzheHqiaeS7wibrdD2TzV25Znyos09thLLZtC5uGNpiczl6EGW5RtXE/0",
      "wxId" : "danche988",
      "channel" : null,
      "sentenceJson" : null
    }, {
      "createTime" : "2019-03-15 20:01:18",
      "sentence" : "　　Last night, I watched a movie, it is about two teenagers, they have cancer, but the boy is positive about life while the girl is negative about life. They meet each other, then the girl is affected by the boy, she starts to see the beautiful things in her life. I am so moved by the movie, though the ending of the movie is not so perfect, we see the change of the girl's life. The topic of the movie is to tell people to be positive about life, no matter what happens, even the bad fortune they get, they still need to smile every day. People need to find the beauty of life, so they won't life live without meaning.",
      "type" : "1",
      "author" : "left",
      "friend" : null,
      "chatId" : null,
      "sensitiveWords" : null,
      "telephones" : null,
      "nickName" : "单车",
      "nick" : "单车",
      "headimg" : "http://wx.qlogo.cn/mmhead/ver_1/oNmXPHX45cugjoTIqr7oBtP0NnyuKU9zFoZaiapFnElxGuVuyMqm4ZicVNzheHqiaeS7wibrdD2TzV25Znyos09thLLZtC5uGNpiczl6EGW5RtXE/0",
      "wxId" : "danche988",
      "channel" : null,
      "sentenceJson" : null
    }, {
      "createTime" : "2019-03-15 20:01:19",
      "sentence" : "{\"des\":\"Lastnight,Iwatchedamovi\",\"img_url\":\"https://hujing-public.oss-cn-beijing.aliyuncs.com/TopicFile/634c931/Company/%E6%96%B0%E9%97%BB%E6%9D%A1.jpeg\",\"sub_type\":5,\"title\":\"Lastnight,Iwatc\",\"redirect_url\":\"www.baid.com\"}",
      "type" : "49",
      "author" : "left",
      "friend" : null,
      "chatId" : null,
      "sensitiveWords" : null,
      "telephones" : null,
      "nickName" : "单车",
      "nick" : "单车",
      "headimg" : "http://wx.qlogo.cn/mmhead/ver_1/oNmXPHX45cugjoTIqr7oBtP0NnyuKU9zFoZaiapFnElxGuVuyMqm4ZicVNzheHqiaeS7wibrdD2TzV25Znyos09thLLZtC5uGNpiczl6EGW5RtXE/0",
      "wxId" : "danche988",
      "channel" : null,
      "sentenceJson" : null
    }, {
      "createTime" : "2019-03-15 20:01:19",
      "sentence" : "Lastnight,Iwatchedamovie,itisabouttwoteenagers,theyhavecancer,buttheboyispositiveaboutlifewhilethegirlisnegativeaboutlife.Theymeeteachother,thenthegirlisaffectedbytheboy,shestartstoseethebeautifulthingsinherlife.Iamsomovedbythemovie,thoughtheendingofthemovieisnotsoperfect,weseethechangeofthegirl'slife.Thetopicofthemovieistotellpeopletobepositiveaboutlife,nomatterwhathappens,eventhebadfortunetheyget,theystillneedtosmileeveryday.Peopleneedtofindthebeautyoflife,sotheywon'tlifelivewithoutmeaning.",
      "type" : "1",
      "author" : "left",
      "friend" : null,
      "chatId" : null,
      "sensitiveWords" : null,
      "telephones" : null,
      "nickName" : "单车",
      "nick" : "单车",
      "headimg" : "http://wx.qlogo.cn/mmhead/ver_1/oNmXPHX45cugjoTIqr7oBtP0NnyuKU9zFoZaiapFnElxGuVuyMqm4ZicVNzheHqiaeS7wibrdD2TzV25Znyos09thLLZtC5uGNpiczl6EGW5RtXE/0",
      "wxId" : "danche988",
      "channel" : null,
      "sentenceJson" : null
    }, {
      "createTime" : "2019-03-15 20:01:21",
      "sentence" : "http://login.aihujing.com:80/image/getImage?ossKey=wx_image/hujing0302/wxid_8o0wyr7y4q2s22_chat_image/th_a2399f93bf92e3028120e5cf50019154",
      "type" : "3",
      "author" : "left",
      "friend" : null,
      "chatId" : null,
      "sensitiveWords" : null,
      "telephones" : null,
      "nickName" : "单车",
      "nick" : "单车",
      "headimg" : "http://wx.qlogo.cn/mmhead/ver_1/oNmXPHX45cugjoTIqr7oBtP0NnyuKU9zFoZaiapFnElxGuVuyMqm4ZicVNzheHqiaeS7wibrdD2TzV25Znyos09thLLZtC5uGNpiczl6EGW5RtXE/0",
      "wxId" : "danche988",
      "channel" : null,
      "sentenceJson" : null
    }, {
      "createTime" : "2019-03-15 20:01:21",
      "sentence" : "{\"des\":\"\",\"sub_type\":6,\"title\":\"user导入.xlsx\"}",
      "type" : "49",
      "author" : "left",
      "friend" : null,
      "chatId" : null,
      "sensitiveWords" : null,
      "telephones" : null,
      "nickName" : "单车",
      "nick" : "单车",
      "headimg" : "http://wx.qlogo.cn/mmhead/ver_1/oNmXPHX45cugjoTIqr7oBtP0NnyuKU9zFoZaiapFnElxGuVuyMqm4ZicVNzheHqiaeS7wibrdD2TzV25Znyos09thLLZtC5uGNpiczl6EGW5RtXE/0",
      "wxId" : "danche988",
      "channel" : null,
      "sentenceJson" : null
    }, {
      "createTime" : "2019-03-15 20:01:21",
      "sentence" : "{\"des\":\"\",\"sub_type\":6,\"title\":\"user导入.xlsx\"}",
      "type" : "49",
      "author" : "left",
      "friend" : null,
      "chatId" : null,
      "sensitiveWords" : null,
      "telephones" : null,
      "nickName" : "单车",
      "nick" : "单车",
      "headimg" : "http://wx.qlogo.cn/mmhead/ver_1/oNmXPHX45cugjoTIqr7oBtP0NnyuKU9zFoZaiapFnElxGuVuyMqm4ZicVNzheHqiaeS7wibrdD2TzV25Znyos09thLLZtC5uGNpiczl6EGW5RtXE/0",
      "wxId" : "danche988",
      "channel" : null,
      "sentenceJson" : null
    }, {
      "createTime" : "2019-03-15 20:01:22",
      "sentence" : "Lastnight,Iwatchedamovie,itisabouttwoteenagers,theyhavecancer,buttheboyispositiveaboutlifewhilethegirlisnegativeaboutlife.Theymeeteachother,thenthegirlisaffectedbytheboy,shestartstoseethebeautifulthingsinherlife.Iamsomovedbythemovie,thoughtheendingofthemovieisnotsoperfect,weseethechangeofthegirl'slife.Thetopicofthemovieistotellpeopletobepositiveaboutlife,nomatterwhathappens,eventhebadfortunetheyget,theystillneedtosmileeveryday.Peopleneedtofindthebeautyoflife,sotheywon'tlifelivewithoutmeaning.",
      "type" : "1",
      "author" : "left",
      "friend" : null,
      "chatId" : null,
      "sensitiveWords" : null,
      "telephones" : null,
      "nickName" : "单车",
      "nick" : "单车",
      "headimg" : "http://wx.qlogo.cn/mmhead/ver_1/oNmXPHX45cugjoTIqr7oBtP0NnyuKU9zFoZaiapFnElxGuVuyMqm4ZicVNzheHqiaeS7wibrdD2TzV25Znyos09thLLZtC5uGNpiczl6EGW5RtXE/0",
      "wxId" : "danche988",
      "channel" : null,
      "sentenceJson" : null
    } ]
  }
}