{
    "code" : 0,
    "message" : null,
    "data" : {
      "totalCount" : 178,
      "totalPage" : 6,
      "currentPage" : 1,
      "result" : [ {
        "createTime" : "2019-03-20 07:08:41",
        "sentence" : "<sysmsg type=\"sysmsgtemplate\">\n\t<sysmsgtemplate>\n\t\t<content_template type=\"tmpl_type_profile\">\n\t\t\t<plain><![CDATA[]]></plain>\n\t\t\t<template><![CDATA[\"$username$\"邀请\"$names$\"加入了群聊]]></template>\n\t\t\t<link_list>\n\t\t\t\t<link name=\"username\" type=\"link_profile\">\n\t\t\t\t\t<memberlist>\n\t\t\t\t\t\t<member>\n\t\t\t\t\t\t\t<username><![CDATA[wxid_2k0omtndw4il22]]></username>\n\t\t\t\t\t\t\t<nickname><![CDATA[想挣钱加我]]></nickname>\n\t\t\t\t\t\t</member>\n\t\t\t\t\t</memberlist>\n\t\t\t\t</link>\n\t\t\t\t<link name=\"names\" type=\"link_profile\">\n\t\t\t\t\t<memberlist>\n\t\t\t\t\t\t<member>\n\t\t\t\t\t\t\t<username><![CDATA[wxid_dp3bacr4kwbp22]]></username>\n\t\t\t\t\t\t\t<nickname><![CDATA[杨琪]]></nickname>\n\t\t\t\t\t\t</member>\n\t\t\t\t\t</memberlist>\n\t\t\t\t\t<separator><![CDATA[、]]></separator>\n\t\t\t\t</link>\n\t\t\t</link_list>\n\t\t</content_template>\n\t</sysmsgtemplate>\n</sysmsg>\n",
        "type" : "570425393",
        "author" : "left",
        "friend" : null,
        "chatId" : null,
        "sensitiveWords" : null,
        "telephones" : null,
        "nickName" : "111",
        "nick" : "111",
        "headimg" : "",
        "wxId" : "wxid_8o0wyr7y4q2s22",
        "channel" : null,
        "sentenceJson" : null
      }, {
        "createTime" : "2019-04-03 20:22:59",
        "sentence" : "http://login.aihujing.com:80/image/getImage?ossKey=wx_image/hujing0302/wxid_8o0wyr7y4q2s22_chat_image/msg_5820220403193e3466ce5b1101.mp3",
        "type" : "34",
        "author" : "right",
        "friend" : null,
        "chatId" : null,
        "sensitiveWords" : null,
        "telephones" : null,
        "nickName" : "七堇年華",
        "nick" : "七堇年華",
        "headimg" : "http://wx.qlogo.cn/mmhead/ver_1/C9eBJ2Ts9xpcPMUAWXz7lCziaTAmo3LrIS1V7qadyjwQLCQauG28ABUeAiaTGf2QJpPNXzeLQgDmMaMiaaZBnVdV9SfsU3BykteXcSmQXlwS4E/0",
        "wxId" : "hujingsdr2",
        "channel" : null,
        "sentenceJson" : null
      },{
        "createTime" : "2019-04-03 20:23:13",
        "sentence" : "{\"video_url\":\"http://login.aihujing.com:80/image/getImage?ossKey=wx_image/hujing0302/wxid_8o0wyr7y4q2s22_chat_image/202305030419ec1b51557290.mp4\",\"img_url\":\"http://login.aihujing.com:80/image/getImage?ossKey=wx_image/hujing0302/wxid_8o0wyr7y4q2s22_chat_image/202305030419ec1b51557290.jpg\"}",
        "type" : "43",
        "author" : "right",
        "friend" : null,
        "chatId" : null,
        "sensitiveWords" : null,
        "telephones" : null,
        "nickName" : "七堇年華",
        "nick" : "七堇年華",
        "headimg" : "http://wx.qlogo.cn/mmhead/ver_1/C9eBJ2Ts9xpcPMUAWXz7lCziaTAmo3LrIS1V7qadyjwQLCQauG28ABUeAiaTGf2QJpPNXzeLQgDmMaMiaaZBnVdV9SfsU3BykteXcSmQXlwS4E/0",
        "wxId" : "hujingsdr2",
        "channel" : null,
        "sentenceJson" : null
      }, {
        "createTime" : "2019-03-15 19:43:27",
        "sentence" : "婆我搜索我搜索就去听",
        "type" : "1",
        "author" : "right",
        "friend" : null,
        "chatId" : null,
        "sensitiveWords" : null,
        "telephones" : null,
        "nickName" : "七堇年華",
        "nick" : "七堇年華",
        "headimg" : "http://wx.qlogo.cn/mmhead/ver_1/C9eBJ2Ts9xpcPMUAWXz7lCziaTAmo3LrIS1V7qadyjwQLCQauG28ABUeAiaTGf2QJpPNXzeLQgDmMaMiaaZBnVdV9SfsU3BykteXcSmQXlwS4E/0",
        "wxId" : "hujingsdr2",
        "channel" : null,
        "sentenceJson" : null
      }, {
        "createTime" : "2019-03-20 08:28:34",
        "sentence" : "{\"des\":\"享生活，快乐购，就在微折购!   自用省钱，分享赚钱！\",\"img_url\":\"\",\"sub_type\":5,\"title\":\"杨琪正品折购店\",\"redirect_url\":\"https://www.weizhegouquanqiufuwuzhongxin.cn/Shop/index/ARSGH/q2yCd/sid/8002634.html?pid=18850109\"}",
        "type" : "49",
        "author" : "left",
        "friend" : null,
        "chatId" : null,
        "sensitiveWords" : null,
        "telephones" : null,
        "nickName" : "杨琪",
        "nick" : "杨琪",
        "headimg" : "http://wx.qlogo.cn/mmhead/ver_1/nic5S5PeWNAf9eIRHibV95qN4hXVibr47WxL0JuHicwx97g8yw5zmI21B1biav1cH65lDZ2Kvo9EyetVUCkPGXVpsCjFFqRtEwJibKs2mhhjua4fc/0",
        "wxId" : "wxid_8o0wyr7y4q2s22",
        "channel" : null,
        "sentenceJson" : null
      }, {
        "createTime" : "2019-03-20 08:28:35",
        "sentence" : "朋友早上好！我来看你啦！",
        "type" : "1",
        "author" : "left",
        "friend" : null,
        "chatId" : null,
        "sensitiveWords" : null,
        "telephones" : null,
        "nickName" : "杨琪",
        "nick" : "杨琪",
        "headimg" : "http://wx.qlogo.cn/mmhead/ver_1/nic5S5PeWNAf9eIRHibV95qN4hXVibr47WxL0JuHicwx97g8yw5zmI21B1biav1cH65lDZ2Kvo9EyetVUCkPGXVpsCjFFqRtEwJibKs2mhhjua4fc/0",
        "wxId" : "wxid_8o0wyr7y4q2s22",
        "channel" : null,
        "sentenceJson" : null
      }, {
        "createTime" : "2019-03-20 08:33:26",
        "sentence" : "{\"sub_type\":33,\"sourcedisplayname\":\"我要当天神\",\"title\":\"皇陵变农田，连考古家都质疑陵中种种修仙痕迹...\"}",
        "type" : "49",
        "author" : "left",
        "friend" : null,
        "chatId" : null,
        "sensitiveWords" : null,
        "telephones" : null,
        "nickName" : "十里故清欢",
        "nick" : "十里故清欢",
        "headimg" : "http://wx.qlogo.cn/mmhead/ver_1/H96LdRwGdlolSlkHCrCy4JExjKSUicHtuLawJ8QnkcGpeKI0Zzu7fTGYpnmDuu012f09IAqcUJbjkClMxD220pQ/0",
        "wxId" : "wxid_8o0wyr7y4q2s22",
        "channel" : null,
        "sentenceJson" : null
      }, {
        "createTime" : "2019-03-20 11:01:09",
        "sentence" : "<sysmsg type=\"sysmsgtemplate\">\n\t<sysmsgtemplate>\n\t\t<content_template type=\"tmpl_type_profile\">\n\t\t\t<plain><![CDATA[]]></plain>\n\t\t\t<template><![CDATA[\"$username$\"邀请\"$names$\"加入了群聊]]></template>\n\t\t\t<link_list>\n\t\t\t\t<link name=\"username\" type=\"link_profile\">\n\t\t\t\t\t<memberlist>\n\t\t\t\t\t\t<member>\n\t\t\t\t\t\t\t<username><![CDATA[wxid_c2ypr3bdau9h11]]></username>\n\t\t\t\t\t\t\t<nickname><![CDATA[春风十里（换群+++）]]></nickname>\n\t\t\t\t\t\t</member>\n\t\t\t\t\t</memberlist>\n\t\t\t\t</link>\n\t\t\t\t<link name=\"names\" type=\"link_profile\">\n\t\t\t\t\t<memberlist>\n\t\t\t\t\t\t<member>\n\t\t\t\t\t\t\t<username><![CDATA[wxid_qqu6t3hghxr522]]></username>\n\t\t\t\t\t\t\t<nickname><![CDATA[怪脾气]]></nickname>\n\t\t\t\t\t\t</member>\n\t\t\t\t\t</memberlist>\n\t\t\t\t\t<separator><![CDATA[、]]></separator>\n\t\t\t\t</link>\n\t\t\t</link_list>\n\t\t</content_template>\n\t</sysmsgtemplate>\n</sysmsg>\n",
        "type" : "570425393",
        "author" : "left",
        "friend" : null,
        "chatId" : null,
        "sensitiveWords" : null,
        "telephones" : null,
        "nickName" : "111",
        "nick" : "111",
        "headimg" : "",
        "wxId" : "wxid_8o0wyr7y4q2s22",
        "channel" : null,
        "sentenceJson" : null
      }, {
        "createTime" : "2019-03-20 11:01:18",
        "sentence" : "这是什么群？",
        "type" : "1",
        "author" : "left",
        "friend" : null,
        "chatId" : null,
        "sensitiveWords" : null,
        "telephones" : null,
        "nickName" : "春风十里（换群+++）",
        "nick" : "春风十里（换群+++）",
        "headimg" : "http://wx.qlogo.cn/mmhead/ver_1/DeTc0xxJ6d94wKWicLVlwacN47Ymqkl38B0Se3wH7p5xJG1QoU8IZOmxonkeZqibIqeibRj9Ze1ib3cBvlXicvct5gRib73ibm8DonSguoRBdA8Jibo/0",
        "wxId" : "wxid_8o0wyr7y4q2s22",
        "channel" : null,
        "sentenceJson" : null
      }, {
        "createTime" : "2019-03-20 15:16:32",
        "sentence" : "{\"des\":\"享生活，快乐购，就在微折购!   自用省钱，分享赚钱！\",\"img_url\":\"\",\"sub_type\":5,\"title\":\"杨琪正品折购店\",\"redirect_url\":\"https://www.weizhegouquanqiufuwuzhongxin.cn/Shop/index/0rUV/tmJOA/sid/8002634.html?pid=18850109\"}",
        "type" : "49",
        "author" : "left",
        "friend" : null,
        "chatId" : null,
        "sensitiveWords" : null,
        "telephones" : null,
        "nickName" : "杨琪",
        "nick" : "杨琪",
        "headimg" : "http://wx.qlogo.cn/mmhead/ver_1/nic5S5PeWNAf9eIRHibV95qN4hXVibr47WxL0JuHicwx97g8yw5zmI21B1biav1cH65lDZ2Kvo9EyetVUCkPGXVpsCjFFqRtEwJibKs2mhhjua4fc/0",
        "wxId" : "wxid_8o0wyr7y4q2s22",
        "channel" : null,
        "sentenceJson" : null
      }, {
        "createTime" : "2019-03-20 15:16:33",
        "sentence" : "点击店铺链接即可进店参观选购。手机充值卡活动即将结束，有需求的朋友尽快联系我！",
        "type" : "1",
        "author" : "left",
        "friend" : null,
        "chatId" : null,
        "sensitiveWords" : null,
        "telephones" : null,
        "nickName" : "杨琪",
        "nick" : "杨琪",
        "headimg" : "http://wx.qlogo.cn/mmhead/ver_1/nic5S5PeWNAf9eIRHibV95qN4hXVibr47WxL0JuHicwx97g8yw5zmI21B1biav1cH65lDZ2Kvo9EyetVUCkPGXVpsCjFFqRtEwJibKs2mhhjua4fc/0",
        "wxId" : "wxid_8o0wyr7y4q2s22",
        "channel" : null,
        "sentenceJson" : null
      }, {
        "createTime" : "2019-03-20 18:54:56",
        "sentence" : "[玫瑰][玫瑰][玫瑰]大笨象商城，预存49元成为商城伙伴人，返现49元在自己的钱包里，只要满100元可以提现）等于零投资成为商城合伙人，中国移动、中国联通、中国电信充话费8.8折，自用省钱，分享还可以赚钱！需要的亲们扫码注册！以自己充的100元话费只需支付88元，太棒了！[强][强][强]",
        "type" : "1",
        "author" : "left",
        "friend" : null,
        "chatId" : null,
        "sensitiveWords" : null,
        "telephones" : null,
        "nickName" : "____笑奈何_____",
        "nick" : "____笑奈何_____",
        "headimg" : "http://wx.qlogo.cn/mmhead/ver_1/AhQqymDlKWRHdFdYyNrKwAVmH0iaoWCAbIUYbcibDwZLtDdwPSBDiakNdIw42ib72CHXmNR3CZtInCjRicv8hqUapHB6r3b0Fd1HLpwCdQEGpoFw/0",
        "wxId" : "wxid_8o0wyr7y4q2s22",
        "channel" : null,
        "sentenceJson" : null
      }, {
        "createTime" : "2019-03-20 18:55:09",
        "sentence" : "http://login.aihujing.com:80/image/getImage?ossKey=wx_image/hujing0302/wxid_8o0wyr7y4q2s22_chat_image/th_30e8f4e7a5416874a9ded750b868c1a0",
        "type" : "3",
        "author" : "left",
        "friend" : null,
        "chatId" : null,
        "sensitiveWords" : null,
        "telephones" : null,
        "nickName" : "____笑奈何_____",
        "nick" : "____笑奈何_____",
        "headimg" : "http://wx.qlogo.cn/mmhead/ver_1/AhQqymDlKWRHdFdYyNrKwAVmH0iaoWCAbIUYbcibDwZLtDdwPSBDiakNdIw42ib72CHXmNR3CZtInCjRicv8hqUapHB6r3b0Fd1HLpwCdQEGpoFw/0",
        "wxId" : "wxid_8o0wyr7y4q2s22",
        "channel" : null,
        "sentenceJson" : null
      }, {
        "createTime" : "2019-03-20 18:55:15",
        "sentence" : "http://login.aihujing.com:80/image/getImage?ossKey=wx_image/hujing0302/wxid_8o0wyr7y4q2s22_chat_image/615a75694f96a460918ce381acb313a1.jpg",
        "type" : "3",
        "author" : "left",
        "friend" : null,
        "chatId" : null,
        "sensitiveWords" : null,
        "telephones" : null,
        "nickName" : "____笑奈何_____",
        "nick" : "____笑奈何_____",
        "headimg" : "http://wx.qlogo.cn/mmhead/ver_1/AhQqymDlKWRHdFdYyNrKwAVmH0iaoWCAbIUYbcibDwZLtDdwPSBDiakNdIw42ib72CHXmNR3CZtInCjRicv8hqUapHB6r3b0Fd1HLpwCdQEGpoFw/0",
        "wxId" : "wxid_8o0wyr7y4q2s22",
        "channel" : null,
        "sentenceJson" : null
      }, {
        "createTime" : "2019-03-20 18:55:16",
        "sentence" : "http://login.aihujing.com:80/image/getImage?ossKey=wx_image/hujing0302/wxid_8o0wyr7y4q2s22_chat_image/917ed8f784b529af4f961263659d263a.jpg",
        "type" : "3",
        "author" : "left",
        "friend" : null,
        "chatId" : null,
        "sensitiveWords" : null,
        "telephones" : null,
        "nickName" : "____笑奈何_____",
        "nick" : "____笑奈何_____",
        "headimg" : "http://wx.qlogo.cn/mmhead/ver_1/AhQqymDlKWRHdFdYyNrKwAVmH0iaoWCAbIUYbcibDwZLtDdwPSBDiakNdIw42ib72CHXmNR3CZtInCjRicv8hqUapHB6r3b0Fd1HLpwCdQEGpoFw/0",
        "wxId" : "wxid_8o0wyr7y4q2s22",
        "channel" : null,
        "sentenceJson" : null
      }, {
        "createTime" : "2019-03-20 18:58:40",
        "sentence" : "看视频赚钱  看看我提的",
        "type" : "1",
        "author" : "left",
        "friend" : null,
        "chatId" : null,
        "sensitiveWords" : null,
        "telephones" : null,
        "nickName" : "阿南",
        "nick" : "阿南",
        "headimg" : "http://wx.qlogo.cn/mmhead/ver_1/4KPAL0ic5EKLlLU4JryM2ic5VZbZup5v6D26mqdu0A3MER4sdiatH0bicic3EjbesGH6Ez8uJhGqbjFkKIWvsQj07iaw/0",
        "wxId" : "wxid_8o0wyr7y4q2s22",
        "channel" : null,
        "sentenceJson" : null
      }, {
        "createTime" : "2019-03-20 18:58:41",
        "sentence" : "{\"des\":\"注册即可拿现金，现金秒提现\",\"img_url\":\"\",\"sub_type\":5,\"title\":\"我给你发了一个新人红包，点击领取\",\"redirect_url\":\"http://share7866.jmeipop.com/share/aplanab=c&price=55&_not_wx_login=1&task_id=101&channel=h5&invite_code=VSFWZU&_timestamp=1553079423&_sign=70b5cbd4a822ca9aad4e37c86267cbde&share_utm_source=guangdiantong49&page_source=task\"}",
        "type" : "49",
        "author" : "left",
        "friend" : null,
        "chatId" : null,
        "sensitiveWords" : null,
        "telephones" : null,
        "nickName" : "阿南",
        "nick" : "阿南",
        "headimg" : "http://wx.qlogo.cn/mmhead/ver_1/4KPAL0ic5EKLlLU4JryM2ic5VZbZup5v6D26mqdu0A3MER4sdiatH0bicic3EjbesGH6Ez8uJhGqbjFkKIWvsQj07iaw/0",
        "wxId" : "wxid_8o0wyr7y4q2s22",
        "channel" : null,
        "sentenceJson" : null
      }, {
        "createTime" : "2019-03-20 18:58:55",
        "sentence" : "http://login.aihujing.com:80/image/getImage?ossKey=wx_image/hujing0302/wxid_8o0wyr7y4q2s22_chat_image/811519436ef326606f25999016ab3d87.jpg",
        "type" : "3",
        "author" : "left",
        "friend" : null,
        "chatId" : null,
        "sensitiveWords" : null,
        "telephones" : null,
        "nickName" : "阿南",
        "nick" : "阿南",
        "headimg" : "http://wx.qlogo.cn/mmhead/ver_1/4KPAL0ic5EKLlLU4JryM2ic5VZbZup5v6D26mqdu0A3MER4sdiatH0bicic3EjbesGH6Ez8uJhGqbjFkKIWvsQj07iaw/0",
        "wxId" : "wxid_8o0wyr7y4q2s22",
        "channel" : null,
        "sentenceJson" : null
      }, {
        "createTime" : "2019-03-20 19:20:27",
        "sentence" : "[爱心]招聘淘宝客服！客服注意需要自己组建80人群 ，兼职门槛低，真正的0费用，你负责建群，机器人负责发单。如果你在家看孩子，没收入，或者你有工作，半天班，我建议你兼职它，因为它不会影响你！一个下来赚200块你水果钱就有了，赚500你新衣服的就有了，赚1000逛街、吃饭、喝茶、悠哉悠哉了。如果你是全职妈妈，更加要做，家庭、孩子、赚钱三不误！全职做的话月薪上万不是问题趁我们还年轻拼的起的时候,一起努力吧挣钱看孩子两不误，有意向的都私信我，本消息属于群发，如有打扰，请谅解",
        "type" : "1",
        "author" : "left",
        "friend" : null,
        "chatId" : null,
        "sensitiveWords" : null,
        "telephones" : null,
        "nickName" : "健康",
        "nick" : "健康",
        "headimg" : "http://wx.qlogo.cn/mmhead/ver_1/a92xhMknkY4mTntP6ZEDtibF6BTTunKKdF3xlYNo123Fl5LN6CvegSSC3kE8VRvTX7WOn95iaWKM5AgNibj6jbMKFZNaaZxYA9mvMibv8oIuicvU/0",
        "wxId" : "wxid_8o0wyr7y4q2s22",
        "channel" : null,
        "sentenceJson" : null
      }, {
        "createTime" : "2019-03-21 07:01:31",
        "sentence" : "[机智]信用卡一族手机必备神器[勾引]\n还在用传统POS机来刷卡套现?\n还在找别人代还信用卡?落伍了!\n下载众成卡管家手机变POS机\nAPP上就能代还和套现信用卡\n套现费率低至0.35%+1超级省钱\n套现1千元信用卡扣4.5元手续费\n套现秒到你实名认证那张储蓄卡\n代还信用卡费率低至0.45%秒还\n代还1万元信用卡扣45元手续费\n银联网联双重认证央行支付牌照\n银行直清标准一清通道安全可靠\n\n注册使用[机智]http://t.cn/EyLforb\n\n信用卡一族下载个以备不时之需\n自用省钱推广赚钱免费招代理商",
        "type" : "1",
        "author" : "left",
        "friend" : null,
        "chatId" : null,
        "sensitiveWords" : null,
        "telephones" : null,
        "nickName" : "郭正文",
        "nick" : "郭正文",
        "headimg" : "http://wx.qlogo.cn/mmhead/ver_1/03PydqWD2fLBWIceKNania19PFkWiar7yspNeP9IpD9KdctPLeEwHX2m7PBefeLvCTIXmgjpOpROQTP6qsfcb63hH1YdZic9p6EXjPa43DfYn8/0",
        "wxId" : "wxid_8o0wyr7y4q2s22",
        "channel" : null,
        "sentenceJson" : null
      }, {
        "createTime" : "2019-03-21 07:20:54",
        "sentence" : "{\"sub_type\":33,\"sourcedisplayname\":\"我要当天神\",\"title\":\"看到这些表格数字，我不禁陷入了沉思...\"}",
        "type" : "49",
        "author" : "left",
        "friend" : null,
        "chatId" : null,
        "sensitiveWords" : null,
        "telephones" : null,
        "nickName" : "十里故清欢",
        "nick" : "十里故清欢",
        "headimg" : "http://wx.qlogo.cn/mmhead/ver_1/H96LdRwGdlolSlkHCrCy4JExjKSUicHtuLawJ8QnkcGpeKI0Zzu7fTGYpnmDuu012f09IAqcUJbjkClMxD220pQ/0",
        "wxId" : "wxid_8o0wyr7y4q2s22",
        "channel" : null,
        "sentenceJson" : null
      }, {
        "createTime" : "2019-03-21 11:42:56",
        "sentence" : "每天挂着微信、加几个群就能赚钱，随便玩每天几块到几十块，稍微努力每天上千没问题，随时提现秒到账，真实可靠不收费，想玩的朋友赶紧注册：\n\nhttp://la241.cn/m/u/reg/ref/RCLyfwm4Cy\n\n请复制到手机浏览器访问，微信和QQ点不开。",
        "type" : "1",
        "author" : "left",
        "friend" : null,
        "chatId" : null,
        "sensitiveWords" : null,
        "telephones" : null,
        "nickName" : "M君",
        "nick" : "M君",
        "headimg" : "http://wx.qlogo.cn/mmhead/ver_1/ibrBa4PCFM1EuuFQyRblpotdRtJibdvBltAweM9YVicHJboDLU2ukeibwnpBwDY9ibibibtTnZiazLSYZ0Nmr5OIuvTYuibicByBmZPy2kpZciaMMb31fA/0",
        "wxId" : "wxid_8o0wyr7y4q2s22",
        "channel" : null,
        "sentenceJson" : null
      }, {
        "createTime" : "2019-03-21 12:33:02",
        "sentence" : "每天挂着微信、加几个群就能赚钱，随便玩每天几块到几十块，稍微努力每天上千没问题，随时提现秒到账，真实可靠不收费，想玩的朋友赶紧注册：\n\nhttp://la241.cn/m/u/reg/ref/7RrCcBdFd0\n\n请复制到手机浏览器访问，微信和QQ点不开。",
        "type" : "1",
        "author" : "left",
        "friend" : null,
        "chatId" : null,
        "sensitiveWords" : null,
        "telephones" : null,
        "nickName" : "大当家",
        "nick" : "大当家",
        "headimg" : "http://wx.qlogo.cn/mmhead/ver_1/O0lIZG0KapcUgVwG1HQ9WJGic95Xd8ibq4ARX21yzibeumBic2MktaTicaDozdElmBvcXwyVpYdItqJwIYNfBicQVQZghgYI8el3gSz1Ngic27ocxs/0",
        "wxId" : "wxid_8o0wyr7y4q2s22",
        "channel" : null,
        "sentenceJson" : null
      }, {
        "createTime" : "2019-03-21 12:54:08",
        "sentence" : "[机智]信用卡一族手机必备神器[勾引]\n还在用传统POS机来刷卡套现?\n还在找别人代还信用卡?落伍了!\n下载众成卡管家手机变POS机\nAPP上就能代还和套现信用卡\n套现费率低至0.35%+1超级省钱\n套现1千元信用卡扣4.5元手续费\n套现秒到你实名认证那张储蓄卡\n代还信用卡费率低至0.45%秒还\n代还1万元信用卡扣45元手续费\n银联网联双重认证央行支付牌照\n银行直清标准一清通道安全可靠\n\n注册使用[机智]http://t.cn/EyLforb\n\n信用卡一族下载个以备不时之需\n自用省钱推广赚钱免费招代理商",
        "type" : "1",
        "author" : "left",
        "friend" : null,
        "chatId" : null,
        "sensitiveWords" : null,
        "telephones" : null,
        "nickName" : "郭正文",
        "nick" : "郭正文",
        "headimg" : "http://wx.qlogo.cn/mmhead/ver_1/03PydqWD2fLBWIceKNania19PFkWiar7yspNeP9IpD9KdctPLeEwHX2m7PBefeLvCTIXmgjpOpROQTP6qsfcb63hH1YdZic9p6EXjPa43DfYn8/0",
        "wxId" : "wxid_8o0wyr7y4q2s22",
        "channel" : null,
        "sentenceJson" : null
      }, {
        "createTime" : "2019-03-21 13:43:30",
        "sentence" : "{\"des\":\"让性福更持久，有效治疗肾虚，男人必看\",\"img_url\":\"https://s3.cn-north-1.amazonaws.com.cn/nfs.gemii.cc/lizpro/201903/91f885a9-0786-4aa6-bfc4-762737a839b1\",\"sub_type\":5,\"title\":\"肾虚？来看看你有几种肾虚症状！\",\"redirect_url\":\"https://open.weixin.qq.com/connect/oauth2/authorize?appid=wxdb09e8c4edeeb63a&response_type=code&scope=snsapi_base&state=STATE&redirect_uri=http://adclick.gemii.cc/groupClick/FB92A4FE482730E85C43213BA978B603/5617/aHR0cDovL3QuY24vRVZwMHl3Wg==\"}",
        "type" : "49",
        "author" : "left",
        "friend" : null,
        "chatId" : null,
        "sensitiveWords" : null,
        "telephones" : null,
        "nickName" : "怪脾气",
        "nick" : "怪脾气",
        "headimg" : "http://wx.qlogo.cn/mmhead/ver_1/OrPnibPMMrkiciazFEHOFqhUlsNjLO03icQQhYqsYia2VQkmibEbAGLST2GQUBYzHbWf5rRoI8uUN029dHr8NP5J7XSwiaHg7HicgdeI9M45PBAy6Xk/0",
        "wxId" : "wxid_8o0wyr7y4q2s22",
        "channel" : null,
        "sentenceJson" : null
      }, {
        "createTime" : "2019-03-21 14:05:20",
        "sentence" : "{\"des\":\"闺蜜因为老公嫌弃她胸小，不愿意碰她，后来她偶然得到了一个丰胸妙招，让她老公更爱她了\",\"img_url\":\"https://s3.cn-north-1.amazonaws.com.cn/nfs.gemii.cc/lizpro/201903/fb52b7ed-f298-4834-bb7a-c58eb56eb24a\",\"sub_type\":5,\"title\":\"女性丰胸美胸的4大妙招\",\"redirect_url\":\"https://open.weixin.qq.com/connect/oauth2/authorize?appid=wxdb09e8c4edeeb63a&response_type=code&scope=snsapi_base&state=STATE&redirect_uri=http://adclick.gemii.cc/groupClick/FB92A4FE482730E85C43213BA978B603/5620/aHR0cDovL2pzMi5uZTY2bi5jbi8=\"}",
        "type" : "49",
        "author" : "left",
        "friend" : null,
        "chatId" : null,
        "sensitiveWords" : null,
        "telephones" : null,
        "nickName" : "怪脾气",
        "nick" : "怪脾气",
        "headimg" : "http://wx.qlogo.cn/mmhead/ver_1/OrPnibPMMrkiciazFEHOFqhUlsNjLO03icQQhYqsYia2VQkmibEbAGLST2GQUBYzHbWf5rRoI8uUN029dHr8NP5J7XSwiaHg7HicgdeI9M45PBAy6Xk/0",
        "wxId" : "wxid_8o0wyr7y4q2s22",
        "channel" : null,
        "sentenceJson" : null
      }, {
        "createTime" : "2019-03-21 14:15:27",
        "sentence" : "{\"des\":\"闺蜜因为老公嫌弃她胸小，不愿意碰她，后来她偶然得到了一个丰胸妙招，让她老公更爱她了\",\"img_url\":\"https://s3.cn-north-1.amazonaws.com.cn/nfs.gemii.cc/lizpro/201903/fb52b7ed-f298-4834-bb7a-c58eb56eb24a\",\"sub_type\":5,\"title\":\"女性丰胸美胸的4大妙招\",\"redirect_url\":\"http://js2.ne66n.cn/\"}",
        "type" : "49",
        "author" : "left",
        "friend" : null,
        "chatId" : null,
        "sensitiveWords" : null,
        "telephones" : null,
        "nickName" : "怪脾气",
        "nick" : "怪脾气",
        "headimg" : "http://wx.qlogo.cn/mmhead/ver_1/OrPnibPMMrkiciazFEHOFqhUlsNjLO03icQQhYqsYia2VQkmibEbAGLST2GQUBYzHbWf5rRoI8uUN029dHr8NP5J7XSwiaHg7HicgdeI9M45PBAy6Xk/0",
        "wxId" : "wxid_8o0wyr7y4q2s22",
        "channel" : null,
        "sentenceJson" : null
      }, {
        "createTime" : "2019-03-21 14:45:22",
        "sentence" : "{\"des\":\"让性福更持久，有效治疗肾虚，男人必看\",\"img_url\":\"https://s3.cn-north-1.amazonaws.com.cn/nfs.gemii.cc/lizpro/201903/91f885a9-0786-4aa6-bfc4-762737a839b1\",\"sub_type\":5,\"title\":\"肾虚？来看看你有几种肾虚症状！\",\"redirect_url\":\"http://t.cn/EVp0ywZ\"}",
        "type" : "49",
        "author" : "left",
        "friend" : null,
        "chatId" : null,
        "sensitiveWords" : null,
        "telephones" : null,
        "nickName" : "怪脾气",
        "nick" : "怪脾气",
        "headimg" : "http://wx.qlogo.cn/mmhead/ver_1/OrPnibPMMrkiciazFEHOFqhUlsNjLO03icQQhYqsYia2VQkmibEbAGLST2GQUBYzHbWf5rRoI8uUN029dHr8NP5J7XSwiaHg7HicgdeI9M45PBAy6Xk/0",
        "wxId" : "wxid_8o0wyr7y4q2s22",
        "channel" : null,
        "sentenceJson" : null
      }, {
        "createTime" : "2019-03-21 15:53:46",
        "sentence" : "{\"des\":\"老婆自从辞职在家带娃，慢慢的变成了黄脸婆，我都不愿意跟她一起出门，后来。。。\",\"img_url\":\"https://s3.cn-north-1.amazonaws.com.cn/nfs.gemii.cc/lizpro/201903/679c6725-e283-42eb-aec1-145b67c4277b\",\"sub_type\":5,\"title\":\"老婆自从用了一个祛斑秘方，现在出门，别人都以为我找了小三\",\"redirect_url\":\"http://yingjianguanli.com/\"}",
        "type" : "49",
        "author" : "left",
        "friend" : null,
        "chatId" : null,
        "sensitiveWords" : null,
        "telephones" : null,
        "nickName" : "怪脾气",
        "nick" : "怪脾气",
        "headimg" : "http://wx.qlogo.cn/mmhead/ver_1/OrPnibPMMrkiciazFEHOFqhUlsNjLO03icQQhYqsYia2VQkmibEbAGLST2GQUBYzHbWf5rRoI8uUN029dHr8NP5J7XSwiaHg7HicgdeI9M45PBAy6Xk/0",
        "wxId" : "wxid_8o0wyr7y4q2s22",
        "channel" : null,
        "sentenceJson" : null
      }, {
        "createTime" : "2019-03-21 15:58:10",
        "sentence" : "{\"des\":\"享生活，快乐购，就在微折购!   自用省钱，分享赚钱！\",\"img_url\":\"\",\"sub_type\":5,\"title\":\"杨琪正品折购店\",\"redirect_url\":\"https://www.weizhegouquanqiufuwuzhongxin.cn/Shop/index/85f/hBiV1l/sid/8002634.html?pid=18850109\"}",
        "type" : "49",
        "author" : "left",
        "friend" : null,
        "chatId" : null,
        "sensitiveWords" : null,
        "telephones" : null,
        "nickName" : "杨琪",
        "nick" : "杨琪",
        "headimg" : "http://wx.qlogo.cn/mmhead/ver_1/nic5S5PeWNAf9eIRHibV95qN4hXVibr47WxL0JuHicwx97g8yw5zmI21B1biav1cH65lDZ2Kvo9EyetVUCkPGXVpsCjFFqRtEwJibKs2mhhjua4fc/0",
        "wxId" : "wxid_8o0wyr7y4q2s22",
        "channel" : null,
        "sentenceJson" : null
      }, {
        "createTime" : "2019-03-21 15:58:11",
        "sentence" : "点击店铺链接即可进店参观选购",
        "type" : "1",
        "author" : "left",
        "friend" : null,
        "chatId" : null,
        "sensitiveWords" : null,
        "telephones" : null,
        "nickName" : "杨琪",
        "nick" : "杨琪",
        "headimg" : "http://wx.qlogo.cn/mmhead/ver_1/nic5S5PeWNAf9eIRHibV95qN4hXVibr47WxL0JuHicwx97g8yw5zmI21B1biav1cH65lDZ2Kvo9EyetVUCkPGXVpsCjFFqRtEwJibKs2mhhjua4fc/0",
        "wxId" : "wxid_8o0wyr7y4q2s22",
        "channel" : null,
        "sentenceJson" : null
      } ]
    }
  }