{
  "code" : 0,
  "message" : null,
  "data" : {
    "totalCount" : 115,
    "totalPage" : 4,
    "currentPage" : 1,
    "result" : [ {
      "id" : 588678,
      "duration" : 35,
      "file" : "",
      "startTime" : 1556080221000,
      "endTime" : 1556080221000,
      "username" : "刘鑫",
      "deptName" : "商务",
      "user_id" : "hujing0302_cc2",
      "contact_name" : "",
      "contact_phone" : "17868802465",
      "out_type" : 0,
      "on_type" : 0,
      "duration_str" : "35",
      "start_time" : "2019-04-24 12:30:21",
      "end_time" : "",
      "call_type" : "呼入未接"
    }, {
      "id" : 457048,
      "duration" : 0,
      "file" : "",
      "startTime" : 1555316741000,
      "endTime" : 1555316741000,
      "username" : "徐洋",
      "deptName" : "试用部门",
      "user_id" : "hujing0302_cc1",
      "contact_name" : "",
      "contact_phone" : "01057219854",
      "out_type" : 0,
      "on_type" : 0,
      "duration_str" : "",
      "start_time" : "2019-04-15 16:25:41",
      "end_time" : "",
      "call_type" : "呼入未接"
    }, {
      "id" : 454242,
      "duration" : 0,
      "file" : "",
      "startTime" : 1555311029000,
      "endTime" : 1555311029000,
      "username" : "徐洋",
      "deptName" : "试用部门",
      "user_id" : "hujing0302_cc1",
      "contact_name" : "",
      "contact_phone" : "18051025297",
      "out_type" : 0,
      "on_type" : 0,
      "duration_str" : "",
      "start_time" : "2019-04-15 14:50:29",
      "end_time" : "",
      "call_type" : "呼入未接"
    }, {
      "id" : 453544,
      "duration" : 0,
      "file" : "",
      "startTime" : 1555307560000,
      "endTime" : 1555307560000,
      "username" : "徐洋",
      "deptName" : "试用部门",
      "user_id" : "hujing0302_cc1",
      "contact_name" : "",
      "contact_phone" : "01052342970",
      "out_type" : 0,
      "on_type" : 0,
      "duration_str" : "234",
      "start_time" : "2019-04-15 13:52:40",
      "end_time" : "",
      "call_type" : "呼入未接"
    }, {
      "id" : 452052,
      "duration" : 0,
      "file" : "",
      "startTime" : 1555293323000,
      "endTime" : 1555293323000,
      "username" : "徐洋",
      "deptName" : "试用部门",
      "user_id" : "hujing0302_cc1",
      "contact_name" : "",
      "contact_phone" : "01085723541",
      "out_type" : 0,
      "on_type" : 0,
      "duration_str" : "110",
      "start_time" : "2019-04-15 09:55:23",
      "end_time" : "",
      "call_type" : "呼入未接"
    }, {
      "id" : 433189,
      "duration" : 0,
      "file" : "",
      "startTime" : 1555118449000,
      "endTime" : 1555118449000,
      "username" : "徐洋",
      "deptName" : "试用部门",
      "user_id" : "hujing0302_cc1",
      "contact_name" : "",
      "contact_phone" : "13925592521",
      "out_type" : 0,
      "on_type" : 0,
      "duration_str" : "110",
      "start_time" : "2019-04-13 09:20:49",
      "end_time" : "",
      "call_type" : "呼入未接"
    }, {
      "id" : 427723,
      "duration" : 6,
      "file" : "http://hujing-salesman-dev.oss-cn-beijing.aliyuncs.com/record_voice/hujing0302/wxid_zwfhbp6bvmil22/1555058905881.mp3?Expires=1557040493&OSSAccessKeyId=LTAI8gFP0ULUW2WC&Signature=eZUv6l7ueupgeHM5dn%2FRM8VlLBk%3D",
      "startTime" : 1555058897000,
      "endTime" : 1555058905000,
      "username" : "徐洋",
      "deptName" : "试用部门",
      "user_id" : "hujing0302_cc1",
      "contact_name" : "",
      "contact_phone" : "0289513199621",
      "out_type" : 0,
      "on_type" : 1,
      "duration_str" : "110",
      "start_time" : "2019-04-12 16:48:17",
      "end_time" : "2019-04-12 16:48:25",
      "call_type" : "呼入"
    }, {
      "id" : 410506,
      "duration" : 0,
      "file" : "",
      "startTime" : 1554967751000,
      "endTime" : 1554967751000,
      "username" : "徐洋",
      "deptName" : "试用部门",
      "user_id" : "hujing0302_cc1",
      "contact_name" : "",
      "contact_phone" : "01053517012",
      "out_type" : 0,
      "on_type" : 0,
      "duration_str" : "",
      "start_time" : "2019-04-11 15:29:11",
      "end_time" : "",
      "call_type" : "呼入未接"
    }, {
      "id" : 405470,
      "duration" : 0,
      "file" : "",
      "startTime" : 1554951468000,
      "endTime" : 1554951468000,
      "username" : "徐洋",
      "deptName" : "试用部门",
      "user_id" : "hujing0302_cc1",
      "contact_name" : "",
      "contact_phone" : "17710628375",
      "out_type" : 0,
      "on_type" : 0,
      "duration_str" : "",
      "start_time" : "2019-04-11 10:57:48",
      "end_time" : "",
      "call_type" : "呼入未接"
    }, {
      "id" : 404273,
      "duration" : 680,
      "file" : "http://hujing-salesman-dev.oss-cn-beijing.aliyuncs.com/record_voice/hujing0302/wxid_zwfhbp6bvmil22/1554948456088.mp3?Expires=1557040493&OSSAccessKeyId=LTAI8gFP0ULUW2WC&Signature=ciIUlEET%2BiPEJsMJtc5dRO9Qk4E%3D",
      "startTime" : 1554947774000,
      "endTime" : 1554948455000,
      "username" : "徐洋",
      "deptName" : "试用部门",
      "user_id" : "hujing0302_cc1",
      "contact_name" : "",
      "contact_phone" : "02224109310",
      "out_type" : 0,
      "on_type" : 1,
      "duration_str" : "680",
      "start_time" : "2019-04-11 09:56:14",
      "end_time" : "2019-04-11 10:07:35",
      "call_type" : "呼入"
    }, {
      "id" : 396983,
      "duration" : 0,
      "file" : "",
      "startTime" : 1554884626000,
      "endTime" : 1554884626000,
      "username" : "徐洋",
      "deptName" : "试用部门",
      "user_id" : "hujing0302_cc1",
      "contact_name" : "",
      "contact_phone" : "17688837317",
      "out_type" : 0,
      "on_type" : 0,
      "duration_str" : "",
      "start_time" : "2019-04-10 16:23:46",
      "end_time" : "",
      "call_type" : "呼入未接"
    }, {
      "id" : 396966,
      "duration" : 0,
      "file" : "",
      "startTime" : 1554884581000,
      "endTime" : 1554884581000,
      "username" : "徐洋",
      "deptName" : "试用部门",
      "user_id" : "hujing0302_cc1",
      "contact_name" : "",
      "contact_phone" : "17688837317",
      "out_type" : 0,
      "on_type" : 0,
      "duration_str" : "",
      "start_time" : "2019-04-10 16:23:01",
      "end_time" : "",
      "call_type" : "呼入未接"
    }, {
      "id" : 385282,
      "duration" : 0,
      "file" : "",
      "startTime" : 1554799821000,
      "endTime" : 1554799821000,
      "username" : "刘鑫",
      "deptName" : "商务",
      "user_id" : "hujing0302_cc2",
      "contact_name" : "",
      "contact_phone" : "17108860075",
      "out_type" : 0,
      "on_type" : 0,
      "duration_str" : "",
      "start_time" : "2019-04-09 16:50:21",
      "end_time" : "",
      "call_type" : "呼入未接"
    }, {
      "id" : 384164,
      "duration" : 0,
      "file" : "",
      "startTime" : 1554797487000,
      "endTime" : 1554797487000,
      "username" : "徐洋",
      "deptName" : "试用部门",
      "user_id" : "hujing0302_cc1",
      "contact_name" : "",
      "contact_phone" : "13381000644",
      "out_type" : 0,
      "on_type" : 0,
      "duration_str" : "",
      "start_time" : "2019-04-09 16:11:27",
      "end_time" : "",
      "call_type" : "呼入未接"
    }, {
      "id" : 381607,
      "duration" : 0,
      "file" : "",
      "startTime" : 1554792285000,
      "endTime" : 1554792285000,
      "username" : "徐洋",
      "deptName" : "试用部门",
      "user_id" : "hujing0302_cc1",
      "contact_name" : "",
      "contact_phone" : "02569515832",
      "out_type" : 0,
      "on_type" : 0,
      "duration_str" : "",
      "start_time" : "2019-04-09 14:44:45",
      "end_time" : "",
      "call_type" : "呼入未接"
    }, {
      "id" : 381402,
      "duration" : 0,
      "file" : "",
      "startTime" : 1554791900000,
      "endTime" : 1554791900000,
      "username" : "徐洋",
      "deptName" : "试用部门",
      "user_id" : "hujing0302_cc1",
      "contact_name" : "",
      "contact_phone" : "02569515832",
      "out_type" : 0,
      "on_type" : 0,
      "duration_str" : "",
      "start_time" : "2019-04-09 14:38:20",
      "end_time" : "",
      "call_type" : "呼入未接"
    }, {
      "id" : 381192,
      "duration" : 0,
      "file" : "",
      "startTime" : 1554791479000,
      "endTime" : 1554791479000,
      "username" : "徐洋",
      "deptName" : "试用部门",
      "user_id" : "hujing0302_cc1",
      "contact_name" : "",
      "contact_phone" : "02569515832",
      "out_type" : 0,
      "on_type" : 0,
      "duration_str" : "",
      "start_time" : "2019-04-09 14:31:19",
      "end_time" : "",
      "call_type" : "呼入未接"
    }, {
      "id" : 379563,
      "duration" : 0,
      "file" : "",
      "startTime" : 1554781822000,
      "endTime" : 1554781822000,
      "username" : "徐洋",
      "deptName" : "试用部门",
      "user_id" : "hujing0302_cc1",
      "contact_name" : "",
      "contact_phone" : "13381000644",
      "out_type" : 0,
      "on_type" : 0,
      "duration_str" : "",
      "start_time" : "2019-04-09 11:50:22",
      "end_time" : "",
      "call_type" : "呼入未接"
    }, {
      "id" : 377928,
      "duration" : 0,
      "file" : "",
      "startTime" : 1554778087000,
      "endTime" : 1554778087000,
      "username" : "徐洋",
      "deptName" : "试用部门",
      "user_id" : "hujing0302_cc1",
      "contact_name" : "",
      "contact_phone" : "15906218091",
      "out_type" : 0,
      "on_type" : 0,
      "duration_str" : "",
      "start_time" : "2019-04-09 10:48:07",
      "end_time" : "",
      "call_type" : "呼入未接"
    }, {
      "id" : 377604,
      "duration" : 0,
      "file" : "",
      "startTime" : 1554777365000,
      "endTime" : 1554777365000,
      "username" : "徐洋",
      "deptName" : "试用部门",
      "user_id" : "hujing0302_cc1",
      "contact_name" : "",
      "contact_phone" : "15906218091",
      "out_type" : 0,
      "on_type" : 0,
      "duration_str" : "",
      "start_time" : "2019-04-09 10:36:05",
      "end_time" : "",
      "call_type" : "呼入未接"
    }, {
      "id" : 373595,
      "duration" : 0,
      "file" : "",
      "startTime" : 1554712093000,
      "endTime" : 1554712093000,
      "username" : "刘富东",
      "deptName" : "商务",
      "user_id" : "liufudong@aihujing.com",
      "contact_name" : "",
      "contact_phone" : "15311412651",
      "out_type" : 0,
      "on_type" : 0,
      "duration_str" : "",
      "start_time" : "2019-04-08 16:28:13",
      "end_time" : "",
      "call_type" : "呼入未接"
    }, {
      "id" : 373051,
      "duration" : 35,
      "file" : "http://hujing-salesman-dev.oss-cn-beijing.aliyuncs.com/record_voice/hujing0302/wxid_zwfhbp6bvmil22/1554704510237.mp3?Expires=1557040493&OSSAccessKeyId=LTAI8gFP0ULUW2WC&Signature=Win%2FNzdDyGqXhud5Ql8jKqjqjXc%3D",
      "startTime" : 1554704473000,
      "endTime" : 1554704509000,
      "username" : "徐洋",
      "deptName" : "试用部门",
      "user_id" : "hujing0302_cc1",
      "contact_name" : "",
      "contact_phone" : "01062419350",
      "out_type" : 0,
      "on_type" : 1,
      "duration_str" : "35秒",
      "start_time" : "2019-04-08 14:21:13",
      "end_time" : "2019-04-08 14:21:49",
      "call_type" : "呼入"
    }, {
      "id" : 372048,
      "duration" : 0,
      "file" : "",
      "startTime" : 1554686675000,
      "endTime" : 1554686675000,
      "username" : "刘鑫",
      "deptName" : "商务",
      "user_id" : "hujing0302_cc2",
      "contact_name" : "",
      "contact_phone" : "13488801488",
      "out_type" : 1,
      "on_type" : 0,
      "duration_str" : "",
      "start_time" : "2019-04-08 09:24:35",
      "end_time" : "",
      "call_type" : "呼出未接"
    }, {
      "id" : 370048,
      "duration" : 0,
      "file" : "",
      "startTime" : 1554606136000,
      "endTime" : 1554606136000,
      "username" : "徐洋",
      "deptName" : "试用部门",
      "user_id" : "hujing0302_cc1",
      "contact_name" : "",
      "contact_phone" : "10108878",
      "out_type" : 0,
      "on_type" : 0,
      "duration_str" : "",
      "start_time" : "2019-04-07 11:02:16",
      "end_time" : "",
      "call_type" : "呼入未接"
    }, {
      "id" : 368425,
      "duration" : 0,
      "file" : "",
      "startTime" : 1554421337000,
      "endTime" : 1554421342000,
      "username" : "徐洋",
      "deptName" : "试用部门",
      "user_id" : "hujing0302_cc1",
      "contact_name" : "",
      "contact_phone" : "01080860129",
      "out_type" : 1,
      "on_type" : 0,
      "duration_str" : "",
      "start_time" : "2019-04-05 07:42:17",
      "end_time" : "",
      "call_type" : "呼出未接"
    }, {
      "id" : 368424,
      "duration" : 0,
      "file" : "",
      "startTime" : 1554366885000,
      "endTime" : 1554366885000,
      "username" : "徐洋",
      "deptName" : "试用部门",
      "user_id" : "hujing0302_cc1",
      "contact_name" : "",
      "contact_phone" : "01080860129",
      "out_type" : 0,
      "on_type" : 0,
      "duration_str" : "",
      "start_time" : "2019-04-04 16:34:45",
      "end_time" : "",
      "call_type" : "呼入未接"
    }, {
      "id" : 368423,
      "duration" : 31,
      "file" : "http://hujing-salesman-dev.oss-cn-beijing.aliyuncs.com/record_voice/hujing0302/wxid_zwfhbp6bvmil22/1554532963204.mp3?Expires=1557040493&OSSAccessKeyId=LTAI8gFP0ULUW2WC&Signature=9gC6b1T0qImX57vDx6UB%2Bfyi4PE%3D",
      "startTime" : 1554362339000,
      "endTime" : 1554362371000,
      "username" : "徐洋",
      "deptName" : "试用部门",
      "user_id" : "hujing0302_cc1",
      "contact_name" : "",
      "contact_phone" : "18676776636",
      "out_type" : 0,
      "on_type" : 1,
      "duration_str" : "31秒",
      "start_time" : "2019-04-04 15:18:59",
      "end_time" : "2019-04-04 15:19:31",
      "call_type" : "呼入"
    }, {
      "id" : 368422,
      "duration" : 47,
      "file" : "http://hujing-salesman-dev.oss-cn-beijing.aliyuncs.com/record_voice/hujing0302/wxid_zwfhbp6bvmil22/1554532948672.mp3?Expires=1557040493&OSSAccessKeyId=LTAI8gFP0ULUW2WC&Signature=SRoEY%2BLE73jzo9f5CkSmE1aESYM%3D",
      "startTime" : 1554361901000,
      "endTime" : 1554361949000,
      "username" : "徐洋",
      "deptName" : "试用部门",
      "user_id" : "hujing0302_cc1",
      "contact_name" : "",
      "contact_phone" : "17362456680",
      "out_type" : 0,
      "on_type" : 1,
      "duration_str" : "47秒",
      "start_time" : "2019-04-04 15:11:41",
      "end_time" : "2019-04-04 15:12:29",
      "call_type" : "呼入"
    }, {
      "id" : 368421,
      "duration" : 0,
      "file" : "",
      "startTime" : 1554356794000,
      "endTime" : 1554356794000,
      "username" : "徐洋",
      "deptName" : "试用部门",
      "user_id" : "hujing0302_cc1",
      "contact_name" : "",
      "contact_phone" : "95205910",
      "out_type" : 0,
      "on_type" : 0,
      "duration_str" : "",
      "start_time" : "2019-04-04 13:46:34",
      "end_time" : "",
      "call_type" : "呼入未接"
    }, {
      "id" : 362564,
      "duration" : 0,
      "file" : "",
      "startTime" : 1554353222000,
      "endTime" : 1554353222000,
      "username" : "徐洋",
      "deptName" : "试用部门",
      "user_id" : "hujing0302_cc1",
      "contact_name" : "",
      "contact_phone" : "13540757505",
      "out_type" : 0,
      "on_type" : 0,
      "duration_str" : "",
      "start_time" : "2019-04-04 12:47:02",
      "end_time" : "",
      "call_type" : "呼入未接"
    } ]
  }
}